CODE_IRIS_2014,CODE_IRIS_2015,NATURE_MODIF,DEPCOM_2014,DEPCOM_2015,ANNEE_MODIF,MODIF_IRIS,SOURCE,TYP_IRIS
141780000,144740000,Fusion de communes non irisées,14178,14474,2015,HH_FUSION,HH_INSEE_COG,Z
250340000,250350000,Fusion de communes non irisées,25034,25035,2015,HH_FUSION,HH_INSEE_COG,Z
280690000,281850000,Fusion de communes non irisées,28069,28185,2015,HH_FUSION,HH_INSEE_COG,Z
380240000,381520000,Fusion de communes non irisées,38024,38152,2015,HH_FUSION,HH_INSEE_COG,Z
604170000,605700000,Fusion de communes non irisées,60417,60570,2015,HH_FUSION,HH_INSEE_COG,Z
610310000,614860000,Fusion de communes non irisées,61031,61486,2015,HH_FUSION,HH_INSEE_COG,Z
611090000,612920000,Fusion de communes non irisées,61109,61292,2015,HH_FUSION,HH_INSEE_COG,Z
611770000,614860000,Fusion de communes non irisées,61177,61486,2015,HH_FUSION,HH_INSEE_COG,Z
612230000,614860000,Fusion de communes non irisées,61223,61486,2015,HH_FUSION,HH_INSEE_COG,Z
612490000,613750000,Fusion de communes non irisées,61249,61375,2015,HH_FUSION,HH_INSEE_COG,Z
613770000,614860000,Fusion de communes non irisées,61377,61486,2015,HH_FUSION,HH_INSEE_COG,Z
614100000,614860000,Fusion de communes non irisées,61410,61486,2015,HH_FUSION,HH_INSEE_COG,Z
614170000,613750000,Fusion de communes non irisées,61417,61375,2015,HH_FUSION,HH_INSEE_COG,Z
615110000,613750000,Fusion de communes non irisées,61511,61375,2015,HH_FUSION,HH_INSEE_COG,Z
615130000,614860000,Fusion de communes non irisées,61513,61486,2015,HH_FUSION,HH_INSEE_COG,Z
692210000,692550000,Fusion de communes non irisées,69221,69255,2015,HH_FUSION,HH_INSEE_COG,Z
693890601,693890605,Échange de parcelles,69389,69389,2015,4,INSEE_DOC,H
693890601,693890606,Échange de parcelles,69389,69389,2015,4,INSEE_DOC,H
693890601,693890607,Échange de parcelles,69389,69389,2015,4,INSEE_DOC,H
693890602,693890606,Échange de parcelles,69389,69389,2015,4,INSEE_DOC,H
693890603,693890607,Échange de parcelles,69389,69389,2015,4,INSEE_DOC,H
711380000,715780000,Fusion de communes non irisées,71138,71578,2015,HH_FUSION,HH_INSEE_COG,Z
720690000,721370000,Fusion de communes non irisées,72069,72137,2015,HH_FUSION,HH_INSEE_COG,Z
721620000,721370000,Fusion de communes non irisées,72162,72137,2015,HH_FUSION,HH_INSEE_COG,Z
722070000,721370000,Fusion de communes non irisées,72207,72137,2015,HH_FUSION,HH_INSEE_COG,Z
722580000,721370000,Fusion de communes non irisées,72258,72137,2015,HH_FUSION,HH_INSEE_COG,Z
723180000,721370000,Fusion de communes non irisées,72318,72137,2015,HH_FUSION,HH_INSEE_COG,Z
732640000,732630000,Fusion de communes non irisées,73264,73263,2015,HH_FUSION,HH_INSEE_COG,Z
765750101,765750105,Échange de parcelles,76575,76575,2015,4,INSEE_DOC,H
765750103,765750106,Échange de parcelles,76575,76575,2015,4,INSEE_DOC,H
765750104,765750107,Échange de parcelles,76575,76575,2015,4,INSEE_DOC,H
765750901,765750105,Échange de parcelles,76575,76575,2015,4,INSEE_DOC,H
765750901,765750106,Échange de parcelles,76575,76575,2015,4,INSEE_DOC,H
765750901,765750107,Échange de parcelles,76575,76575,2015,4,INSEE_DOC,H
765750901,765750903,Échange de parcelles,76575,76575,2015,4,INSEE_DOC,H
771660000,773160000,Fusion de communes non irisées,77166,77316,2015,HH_FUSION,HH_INSEE_COG,Z
,551380000,Nouvelle commune,,55138,2015,HH_CREATION,HH_UNEXPLAINED,Z
