CODE_IRIS_2013,CODE_IRIS_2014,NATURE_MODIF,DEPCOM_2013,DEPCOM_2014,ANNEE_MODIF,MODIF_IRIS,SOURCE,TYP_IRIS
111880000,112660103,Échange de parcelles,11188,11266,2014,4,INSEE_DOC,H
112660102,111880000,Échange de parcelles,11266,11188,2014,4,INSEE_DOC,Z
112660102,112660103,Échange de parcelles,11266,11266,2014,4,INSEE_DOC,H
523790000,521870000,Fusion de communes non irisées,52379,52187,2014,HH_FUSION,HH_INSEE_COG,Z
572210104,572210107,Échange de parcelles,57221,57221,2014,4,INSEE_DOC,D
572210104,576720122,Échange de parcelles,57221,57672,2014,4,INSEE_DOC,H
576720119,576720122,Échange de parcelles,57672,57672,2014,4,INSEE_DOC,H
761080201,760950101,Rétablissement/Fusion de communes irisées,76108,76095,2014,3,INSEE_DOC,H
761080202,760950102,Rétablissement/Fusion de communes irisées,76108,76095,2014,3,INSEE_DOC,H
761080203,760950103,Rétablissement/Fusion de communes irisées,76108,76095,2014,3,INSEE_DOC,H
